<?xml version="1.0" encoding="UTF-8"?>
<svg width="29px" height="28px" viewBox="0 0 29 28" version="1.1" xmlns="http://www.w3.org/2000/svg" xmlns:xlink="http://www.w3.org/1999/xlink">
    <!-- Generator: sketchtool 48.2 (47327) - http://www.bohemiancoding.com/sketch -->
    <title>6E26EA32-A3AA-4F54-9007-9FA90BCC77A8</title>
    <desc>Created with sketchtool.</desc>
    <defs></defs>
    <g id="Iconography-&amp;-fields" stroke="none" stroke-width="1" fill="none" fill-rule="evenodd" transform="translate(-406.000000, -634.000000)">
        <g id="Icon/28error" transform="translate(406.800000, 634.000000)">
            <g id="Page-1" transform="translate(14.000000, 14.000000) scale(1, -1) translate(-14.000000, -14.000000) " fill="#D0021B">
                <path d="M28,14 C28,6.2685 21.7315,0 14,0 C6.2685,0 0,6.2685 0,14 C0,21.7315 6.2685,28 14,28 C21.7315,28 28,21.7315 28,14" id="Fill-1"></path>
            </g>
            <g id="Page-1" transform="translate(12.000000, 6.000000)" fill="#FFFFFF">
                <g id="Group">
                    <path d="M3.3332,14.6666667 C3.3332,15.404 2.73586667,16 1.99986667,16 C1.26386667,16 0.666533333,15.404 0.666533333,14.6666667 C0.666533333,13.9293333 1.26386667,13.3333333 1.99986667,13.3333333 C2.73586667,13.3333333 3.3332,13.9293333 3.3332,14.6666667" id="Fill-1"></path>
                    <path d="M1.99986667,0 C0.895866667,0 -0.000133333333,0.896 -0.000133333333,2 L0.666533333,10.6666667 C0.666533333,11.404 1.26386667,12 1.99986667,12 C2.73586667,12 3.3332,11.404 3.3332,10.6666667 L3.99986667,2 C3.99986667,0.896 3.1052,0 1.99986667,0" id="Fill-3"></path>
                </g>
            </g>
        </g>
    </g>
</svg>