<?xml version="1.0" encoding="UTF-8"?>
<svg width="28px" height="28px" viewBox="0 0 28 28" version="1.1" xmlns="http://www.w3.org/2000/svg" xmlns:xlink="http://www.w3.org/1999/xlink">
    <!-- Generator: sketchtool 48.2 (47327) - http://www.bohemiancoding.com/sketch -->
    <title>43B8D49B-A187-4610-A4D2-ED139ED584B9</title>
    <desc>Created with sketchtool.</desc>
    <defs></defs>
    <g id="Iconography-&amp;-fields" stroke="none" stroke-width="1" fill="none" fill-rule="evenodd" transform="translate(-482.000000, -634.000000)">
        <g id="Icon/28tick" transform="translate(482.000000, 634.000000)">
            <g id="Page-1" transform="translate(14.000000, 14.000000) scale(1, -1) translate(-14.000000, -14.000000) ">
                <path d="M14,0 C6.2685,0 0,6.2685 0,14 C0,21.7315 6.2685,28 14,28 C21.7315,28 28,21.7315 28,14 C28,6.2685 21.7315,0 14,0 Z" id="Fill-1" fill="#4CAF50"></path>
                <path d="M18.9062776,8.34245657 L18.9027742,8.33895317 L12.2965448,14.9451826 C12.2813634,14.960364 12.2603431,14.9650352 12.2439939,14.9802166 C11.7862173,15.3901134 11.0855389,15.3854422 10.6452794,14.9451826 L8.99284614,13.2927494 C8.53740518,12.8373085 7.79818947,12.8373085 7.34158072,13.2927494 C6.88613976,13.7493582 6.88613976,14.4897417 7.34158072,14.9451826 L9.81847885,17.4220808 C10.7316964,18.3352983 12.2101278,18.3352983 13.1221775,17.4220808 L20.5341871,10.0100711 C20.5411939,10.0030644 20.5505363,10.0018966 20.5575431,9.99372198 C21.0141518,9.53828103 21.0141518,8.79906532 20.5575431,8.34245657 C20.1021021,7.88584781 19.3628864,7.88584781 18.9062776,8.34245657" id="Fill-1" fill="#FFFFFF" transform="translate(13.950000, 13.053497) scale(1, -1) translate(-13.950000, -13.053497) "></path>
            </g>
        </g>
    </g>
</svg>