<?xml version="1.0" encoding="UTF-8"?>
<svg width="24px" height="23px" viewBox="0 0 24 23" version="1.1" xmlns="http://www.w3.org/2000/svg" xmlns:xlink="http://www.w3.org/1999/xlink">
    <!-- Generator: sketchtool 48.2 (47327) - http://www.bohemiancoding.com/sketch -->
    <title>12AAD861-4EC7-4250-8B0E-2D0ED7707D2E</title>
    <desc>Created with sketchtool.</desc>
    <defs>
        <circle id="path-1" cx="11.5" cy="11.5" r="11.5"></circle>
    </defs>
    <g id="Iconography-&amp;-fields" stroke="none" stroke-width="1" fill="none" fill-rule="evenodd" transform="translate(-602.000000, -360.000000)">
        <g id="Icon/open-item" transform="translate(602.400000, 360.000000)">
            <g id="Page-1" stroke-width="1">
                <g id="Group-6"></g>
                <g id="Oval-3">
                    <use fill="#9E1B32" fill-rule="evenodd" xlink:href="#path-1"></use>
                    <circle stroke="#9E1B32" stroke-width="2" cx="11.5" cy="11.5" r="10.5"></circle>
                </g>
            </g>
            <path d="M13.0923712,11.5001875 L15.6707637,8.92104496 C16.1102454,8.48156327 16.1102454,7.76909295 15.6707637,7.32961127 C15.231282,6.89012958 14.5188117,6.89012958 14.07933,7.32961127 L11.5001875,9.90950377 L8.92104496,7.32961127 C8.48156327,6.89012958 7.76909295,6.89012958 7.32961127,7.32961127 C6.89012958,7.76909295 6.89012958,8.48156327 7.32961127,8.92104496 L9.90950377,11.5001875 L7.32961127,14.08008 C6.89012958,14.5188117 6.89012958,15.231282 7.32961127,15.6707637 C7.54785217,15.8905046 7.83659014,16 8.12532811,16 C8.41406608,16 8.70130411,15.8905046 8.92104496,15.6707637 L11.5001875,13.0908712 L14.07933,15.6707637 C14.2990709,15.8905046 14.5878088,16 14.8750469,16 C15.1637848,16 15.4517728,15.8905046 15.6707637,15.6707637 C16.1102454,15.231282 16.1102454,14.5188117 15.6707637,14.08008 L13.0923712,11.5001875 Z" id="Fill-1" fill="#FFFFFF" transform="translate(11.500187, 11.500000) rotate(45.000000) translate(-11.500187, -11.500000) "></path>
        </g>
    </g>
</svg>